QCS.sim/sim_1/synth/func/xsim/simulate.log
Time resolution is 1 ps
Time=0, REC=         0, RPM=         0, State=00
Testing forward progression...
Time=25000, REC=         0, RPM=   2500000, State=00
Time=75000, REC=         1, RPM=   2500000, State=10
Time=125000, REC=         2, RPM=   2500000, State=11
Time=145000, REC=         2, RPM=   1250000, State=11
Time=175000, REC=         3, RPM=   1250000, State=01
Time=205000, REC=         3, RPM=    833333, State=01
Testing reverse progression...
Time=225000, REC=         4, RPM=    833333, State=00
Time=265000, REC=         4, RPM=    625000, State=00
Time=275000, REC=         3, RPM=    625000, State=01
Time=325000, REC=         2, RPM=    625000, State=11
Time=335000, REC=         2, RPM=   2500000, State=11
Time=375000, REC=         1, RPM=   2500000, State=10
Time=395000, REC=         1, RPM=   1250000, State=10
Testing negative overflow...
Time=425000, REC=         0, RPM=   1250000, State=00
Time=455000, REC=         0, RPM=    833333, State=00
Time=475000, REC=4294967295, RPM=    833333, State=01
Time=515000, REC=4294967295, RPM=    625000, State=01
Time=525000, REC=4294967294, RPM=    625000, State=11
Time=575000, REC=4294967293, RPM=    625000, State=10
Time=585000, REC=4294967293, RPM=   2500000, State=10
Testing various clock pulse lengths to validate rpm...
Time=625000, REC=4294967292, RPM=   2500000, State=00
Time=645000, REC=4294967292, RPM=   1250000, State=00
Time=695000, REC=4294967292, RPM=    416666, State=00
Time=745000, REC=4294967292, RPM=    250000, State=00
Time=795000, REC=4294967292, RPM=    178571, State=00
Time=845000, REC=4294967292, RPM=    138888, State=00
Time=895000, REC=4294967292, RPM=    113636, State=00
Time=945000, REC=4294967292, RPM=     96153, State=00
Time=995000, REC=4294967292, RPM=     83333, State=00
Time=1045000, REC=4294967292, RPM=     73529, State=00
Time=1095000, REC=4294967292, RPM=     65789, State=00
Time=1145000, REC=4294967292, RPM=     59523, State=00
Time=1195000, REC=4294967292, RPM=     54347, State=00
Time=1245000, REC=4294967292, RPM=     50000, State=00
Time=1295000, REC=4294967292, RPM=     46296, State=00
Time=1345000, REC=4294967292, RPM=     43103, State=00
Time=1395000, REC=4294967292, RPM=     40322, State=00
Time=1445000, REC=4294967292, RPM=     37878, State=00
Time=1495000, REC=4294967292, RPM=     35714, State=00
Time=1545000, REC=4294967292, RPM=     33783, State=00
Time=1595000, REC=4294967292, RPM=     32051, State=00
Time=1645000, REC=4294967292, RPM=     30487, State=00
Time=1695000, REC=4294967292, RPM=     29069, State=00
Time=1745000, REC=4294967292, RPM=     27777, State=00
Time=1795000, REC=4294967292, RPM=     26595, State=00
Time=1845000, REC=4294967292, RPM=     25510, State=00
Time=1895000, REC=4294967292, RPM=     24509, State=00
Time=1945000, REC=4294967292, RPM=     23584, State=00
Time=1995000, REC=4294967292, RPM=     22727, State=00
Time=2045000, REC=4294967292, RPM=     21929, State=00
Time=2095000, REC=4294967292, RPM=     21186, State=00
Time=2145000, REC=4294967292, RPM=     20491, State=00
Time=2195000, REC=4294967292, RPM=     19841, State=00
Time=2245000, REC=4294967292, RPM=     19230, State=00
Time=2295000, REC=4294967292, RPM=     18656, State=00
Time=2345000, REC=4294967292, RPM=     18115, State=00
Time=2395000, REC=4294967292, RPM=     17605, State=00
Time=2445000, REC=4294967292, RPM=     17123, State=00
Time=2495000, REC=4294967292, RPM=     16666, State=00
Time=2545000, REC=4294967292, RPM=     16233, State=00
Time=2595000, REC=4294967292, RPM=     15822, State=00
Time=2645000, REC=4294967292, RPM=     15432, State=00
Time=2695000, REC=4294967292, RPM=     15060, State=00
Time=2745000, REC=4294967292, RPM=     14705, State=00
Time=2795000, REC=4294967292, RPM=     14367, State=00
Time=2845000, REC=4294967292, RPM=     14044, State=00
Time=2895000, REC=4294967292, RPM=     13736, State=00
Time=2945000, REC=4294967292, RPM=     13440, State=00
Time=2995000, REC=4294967292, RPM=     13157, State=00
Time=3045000, REC=4294967292, RPM=     12886, State=00
Time=3095000, REC=4294967292, RPM=     12626, State=00
Time=3145000, REC=4294967292, RPM=     12376, State=00
Time=3195000, REC=4294967292, RPM=     12135, State=00
Time=3245000, REC=4294967292, RPM=     11904, State=00
Time=3295000, REC=4294967292, RPM=     11682, State=00
Time=3345000, REC=4294967292, RPM=     11467, State=00
Time=3395000, REC=4294967292, RPM=     11261, State=00
Time=3445000, REC=4294967292, RPM=     11061, State=00
Time=3495000, REC=4294967292, RPM=     10869, State=00
Time=3545000, REC=4294967292, RPM=     10683, State=00
Time=3595000, REC=4294967292, RPM=     10504, State=00
Time=3645000, REC=4294967292, RPM=     10330, State=00
Time=3695000, REC=4294967292, RPM=     10162, State=00
Time=3745000, REC=4294967292, RPM=     10000, State=00
Time=3795000, REC=4294967292, RPM=      9842, State=00
Time=3845000, REC=4294967292, RPM=      9689, State=00
Time=3895000, REC=4294967292, RPM=      9541, State=00
Time=3945000, REC=4294967292, RPM=      9398, State=00
Time=3995000, REC=4294967292, RPM=      9259, State=00
Time=4045000, REC=4294967292, RPM=      9124, State=00
Time=4095000, REC=4294967292, RPM=      8992, State=00
Time=4145000, REC=4294967292, RPM=      8865, State=00
Time=4195000, REC=4294967292, RPM=      8741, State=00
Time=4245000, REC=4294967292, RPM=      8620, State=00
Time=4295000, REC=4294967292, RPM=      8503, State=00
Time=4345000, REC=4294967292, RPM=      8389, State=00
Time=4395000, REC=4294967292, RPM=      8278, State=00
Time=4445000, REC=4294967292, RPM=      8169, State=00
Time=4495000, REC=4294967292, RPM=      8064, State=00
Time=4545000, REC=4294967292, RPM=      7961, State=00
Time=4595000, REC=4294967292, RPM=      7861, State=00
Time=4645000, REC=4294967292, RPM=      7763, State=00
Time=4695000, REC=4294967292, RPM=      7668, State=00
Time=4745000, REC=4294967292, RPM=      7575, State=00
Time=4795000, REC=4294967292, RPM=      7485, State=00
Time=4845000, REC=4294967292, RPM=      7396, State=00
Time=4895000, REC=4294967292, RPM=      7309, State=00
Time=4945000, REC=4294967292, RPM=      7225, State=00
Time=4995000, REC=4294967292, RPM=      7142, State=00
Time=5045000, REC=4294967292, RPM=      7062, State=00
Time=5095000, REC=4294967292, RPM=      6983, State=00
Time=5145000, REC=4294967292, RPM=      6906, State=00
Time=5195000, REC=4294967292, RPM=      6830, State=00
Time=5245000, REC=4294967292, RPM=      6756, State=00
Time=5295000, REC=4294967292, RPM=      6684, State=00
Time=5345000, REC=4294967292, RPM=      6613, State=00
Time=5395000, REC=4294967292, RPM=      6544, State=00
Time=5445000, REC=4294967292, RPM=      6476, State=00
Time=5495000, REC=4294967292, RPM=      6410, State=00
Time=5545000, REC=4294967292, RPM=      6345, State=00
Time=5595000, REC=4294967292, RPM=      6281, State=00
Time=5645000, REC=4294967292, RPM=      6218, State=00
Time=5695000, REC=4294967292, RPM=      6157, State=00
Time=5745000, REC=4294967292, RPM=      6097, State=00
Time=5795000, REC=4294967292, RPM=      6038, State=00
Time=5845000, REC=4294967292, RPM=      5980, State=00
Time=5895000, REC=4294967292, RPM=      5924, State=00
Time=5945000, REC=4294967292, RPM=      5868, State=00
Time=5995000, REC=4294967292, RPM=      5813, State=00
Time=6045000, REC=4294967292, RPM=      5760, State=00
Time=6095000, REC=4294967292, RPM=      5707, State=00
Time=6145000, REC=4294967292, RPM=      5656, State=00
Time=6195000, REC=4294967292, RPM=      5605, State=00
Time=6245000, REC=4294967292, RPM=      5555, State=00
Time=6295000, REC=4294967292, RPM=      5506, State=00
Time=6345000, REC=4294967292, RPM=      5458, State=00
Time=6395000, REC=4294967292, RPM=      5411, State=00
Time=6445000, REC=4294967292, RPM=      5364, State=00
Time=6495000, REC=4294967292, RPM=      5319, State=00
Time=6545000, REC=4294967292, RPM=      5274, State=00
Time=6595000, REC=4294967292, RPM=      5230, State=00
Time=6645000, REC=4294967292, RPM=      5186, State=00
Time=6695000, REC=4294967292, RPM=      5144, State=00
Time=6745000, REC=4294967292, RPM=      5102, State=00
Time=6795000, REC=4294967292, RPM=      5060, State=00
Time=6845000, REC=4294967292, RPM=      5020, State=00
Time=6895000, REC=4294967292, RPM=      4980, State=00
Time=6945000, REC=4294967292, RPM=      4940, State=00
Time=6995000, REC=4294967292, RPM=      4901, State=00
Time=7045000, REC=4294967292, RPM=      4863, State=00
Time=7095000, REC=4294967292, RPM=      4826, State=00
Time=7145000, REC=4294967292, RPM=      4789, State=00
Time=7195000, REC=4294967292, RPM=      4752, State=00
Time=7245000, REC=4294967292, RPM=      4716, State=00
Time=7295000, REC=4294967292, RPM=      4681, State=00
Time=7345000, REC=4294967292, RPM=      4646, State=00
Time=7395000, REC=4294967292, RPM=      4612, State=00
Time=7445000, REC=4294967292, RPM=      4578, State=00
Time=7495000, REC=4294967292, RPM=      4545, State=00
Time=7545000, REC=4294967292, RPM=      4512, State=00
Time=7595000, REC=4294967292, RPM=      4480, State=00
Time=7645000, REC=4294967292, RPM=      4448, State=00
Time=7695000, REC=4294967292, RPM=      4416, State=00
Time=7745000, REC=4294967292, RPM=      4385, State=00
Time=7795000, REC=4294967292, RPM=      4355, State=00
Time=7845000, REC=4294967292, RPM=      4325, State=00
Time=7895000, REC=4294967292, RPM=      4295, State=00
Time=7945000, REC=4294967292, RPM=      4266, State=00
Time=7995000, REC=4294967292, RPM=      4237, State=00
Time=8045000, REC=4294967292, RPM=      4208, State=00
Time=8095000, REC=4294967292, RPM=      4180, State=00
Time=8145000, REC=4294967292, RPM=      4152, State=00
Time=8195000, REC=4294967292, RPM=      4125, State=00
Time=8245000, REC=4294967292, RPM=      4098, State=00
Time=8295000, REC=4294967292, RPM=      4071, State=00
Time=8345000, REC=4294967292, RPM=      4045, State=00
Time=8395000, REC=4294967292, RPM=      4019, State=00
Time=8445000, REC=4294967292, RPM=      3993, State=00
Time=8495000, REC=4294967292, RPM=      3968, State=00
Time=8545000, REC=4294967292, RPM=      3943, State=00
Time=8595000, REC=4294967292, RPM=      3918, State=00
Time=8645000, REC=4294967292, RPM=      3894, State=00
Time=8695000, REC=4294967292, RPM=      3869, State=00
Time=8745000, REC=4294967292, RPM=      3846, State=00
Time=8795000, REC=4294967292, RPM=      3822, State=00
Time=8845000, REC=4294967292, RPM=      3799, State=00
Time=8895000, REC=4294967292, RPM=      3776, State=00
Time=8945000, REC=4294967292, RPM=      3753, State=00
Time=8995000, REC=4294967292, RPM=      3731, State=00
Time=9045000, REC=4294967292, RPM=      3709, State=00
Time=9095000, REC=4294967292, RPM=      3687, State=00
Time=9145000, REC=4294967292, RPM=      3665, State=00
Time=9195000, REC=4294967292, RPM=      3644, State=00
Time=9245000, REC=4294967292, RPM=      3623, State=00
Time=9295000, REC=4294967292, RPM=      3602, State=00
Time=9345000, REC=4294967292, RPM=      3581, State=00
Time=9395000, REC=4294967292, RPM=      3561, State=00
Time=9445000, REC=4294967292, RPM=      3541, State=00
Time=9495000, REC=4294967292, RPM=      3521, State=00
Time=9545000, REC=4294967292, RPM=      3501, State=00
Time=9595000, REC=4294967292, RPM=      3481, State=00
Time=9645000, REC=4294967292, RPM=      3462, State=00
Time=9695000, REC=4294967292, RPM=      3443, State=00
Time=9745000, REC=4294967292, RPM=      3424, State=00
Time=9795000, REC=4294967292, RPM=      3405, State=00
Time=9845000, REC=4294967292, RPM=      3387, State=00
Time=9895000, REC=4294967292, RPM=      3369, State=00
Time=9945000, REC=4294967292, RPM=      3351, State=00
Time=9995000, REC=4294967292, RPM=      3333, State=00
Time=10045000, REC=4294967292, RPM=      3315, State=00
Time=10095000, REC=4294967292, RPM=      3298, State=00
Time=10145000, REC=4294967292, RPM=      3280, State=00
Time=10195000, REC=4294967292, RPM=      3263, State=00
Time=10245000, REC=4294967292, RPM=      3246, State=00
Time=10295000, REC=4294967292, RPM=      3229, State=00
Time=10345000, REC=4294967292, RPM=      3213, State=00
Time=10395000, REC=4294967292, RPM=      3196, State=00
Time=10445000, REC=4294967292, RPM=      3180, State=00
Time=10495000, REC=4294967292, RPM=      3164, State=00
Time=10545000, REC=4294967292, RPM=      3148, State=00
Time=10595000, REC=4294967292, RPM=      3132, State=00
Time=10645000, REC=4294967292, RPM=      3117, State=00
Time=10695000, REC=4294967292, RPM=      3101, State=00
Time=10745000, REC=4294967292, RPM=      3086, State=00
Time=10795000, REC=4294967292, RPM=      3071, State=00
Time=10845000, REC=4294967292, RPM=      3056, State=00
Time=10895000, REC=4294967292, RPM=      3041, State=00
Time=10945000, REC=4294967292, RPM=      3026, State=00
Time=10995000, REC=4294967292, RPM=      3012, State=00
Time=11045000, REC=4294967292, RPM=      2997, State=00
Time=11095000, REC=4294967292, RPM=      2983, State=00
Time=11145000, REC=4294967292, RPM=      2969, State=00
Time=11195000, REC=4294967292, RPM=      2955, State=00
Time=11245000, REC=4294967292, RPM=      2941, State=00
Time=11295000, REC=4294967292, RPM=      2927, State=00
Time=11345000, REC=4294967292, RPM=      2913, State=00
Time=11395000, REC=4294967292, RPM=      2900, State=00
Time=11445000, REC=4294967292, RPM=      2886, State=00
Time=11495000, REC=4294967292, RPM=      2873, State=00
Time=11545000, REC=4294967292, RPM=      2860, State=00
Time=11595000, REC=4294967292, RPM=      2847, State=00
Time=11645000, REC=4294967292, RPM=      2834, State=00
Time=11695000, REC=4294967292, RPM=      2821, State=00
Time=11745000, REC=4294967292, RPM=      2808, State=00
Time=11795000, REC=4294967292, RPM=      2796, State=00
Time=11845000, REC=4294967292, RPM=      2783, State=00
Time=11895000, REC=4294967292, RPM=      2771, State=00
Time=11945000, REC=4294967292, RPM=      2759, State=00
Time=11995000, REC=4294967292, RPM=      2747, State=00
Time=12045000, REC=4294967292, RPM=      2735, State=00
Time=12095000, REC=4294967292, RPM=      2723, State=00
Time=12145000, REC=4294967292, RPM=      2711, State=00
Time=12195000, REC=4294967292, RPM=      2699, State=00
Time=12245000, REC=4294967292, RPM=      2688, State=00
Time=12295000, REC=4294967292, RPM=      2676, State=00
Time=12345000, REC=4294967292, RPM=      2665, State=00
Time=12395000, REC=4294967292, RPM=      2653, State=00
Time=12445000, REC=4294967292, RPM=      2642, State=00
Time=12495000, REC=4294967292, RPM=      2631, State=00
Time=12545000, REC=4294967292, RPM=      2620, State=00
Time=12595000, REC=4294967292, RPM=      2609, State=00
Time=12645000, REC=4294967292, RPM=      2598, State=00
Time=12695000, REC=4294967292, RPM=      2587, State=00
Time=12745000, REC=4294967292, RPM=      2577, State=00
Time=12795000, REC=4294967292, RPM=      2566, State=00
Time=12845000, REC=4294967292, RPM=      2556, State=00
Time=12895000, REC=4294967292, RPM=      2545, State=00
Time=12945000, REC=4294967292, RPM=      2535, State=00
Time=12995000, REC=4294967292, RPM=      2525, State=00
Time=13045000, REC=4294967292, RPM=      2515, State=00
Time=13095000, REC=4294967292, RPM=      2505, State=00
Time=13145000, REC=4294967292, RPM=      2495, State=00
Time=13195000, REC=4294967292, RPM=      2485, State=00
Time=13245000, REC=4294967292, RPM=      2475, State=00
Time=13295000, REC=4294967292, RPM=      2465, State=00
Time=13345000, REC=4294967292, RPM=      2455, State=00
Time=13395000, REC=4294967292, RPM=      2446, State=00
Time=13445000, REC=4294967292, RPM=      2436, State=00
Time=13495000, REC=4294967292, RPM=      2427, State=00
Time=13545000, REC=4294967292, RPM=      2417, State=00
Time=13595000, REC=4294967292, RPM=      2408, State=00
Time=13645000, REC=4294967292, RPM=      2399, State=00
Time=13695000, REC=4294967292, RPM=      2390, State=00
Time=13745000, REC=4294967292, RPM=      2380, State=00
Time=13795000, REC=4294967292, RPM=      2371, State=00
Time=13845000, REC=4294967292, RPM=      2362, State=00
Time=13895000, REC=4294967292, RPM=      2354, State=00
Time=13945000, REC=4294967292, RPM=      2345, State=00
Time=13995000, REC=4294967292, RPM=      2336, State=00
Time=14045000, REC=4294967292, RPM=      2327, State=00
Time=14095000, REC=4294967292, RPM=      2319, State=00
Time=14145000, REC=4294967292, RPM=      2310, State=00
Time=14195000, REC=4294967292, RPM=      2302, State=00
Time=14245000, REC=4294967292, RPM=      2293, State=00
Time=14295000, REC=4294967292, RPM=      2285, State=00
Time=14345000, REC=4294967292, RPM=      2276, State=00
Time=14395000, REC=4294967292, RPM=      2268, State=00
Time=14445000, REC=4294967292, RPM=      2260, State=00
Time=14495000, REC=4294967292, RPM=      2252, State=00
Time=14545000, REC=4294967292, RPM=      2244, State=00
Time=14595000, REC=4294967292, RPM=      2236, State=00
Time=14645000, REC=4294967292, RPM=      2228, State=00
Time=14695000, REC=4294967292, RPM=      2220, State=00
Time=14745000, REC=4294967292, RPM=      2212, State=00
Time=14795000, REC=4294967292, RPM=      2204, State=00
Time=14845000, REC=4294967292, RPM=      2196, State=00
Time=14895000, REC=4294967292, RPM=      2189, State=00
Time=14945000, REC=4294967292, RPM=      2181, State=00
Time=14995000, REC=4294967292, RPM=      2173, State=00
Time=15045000, REC=4294967292, RPM=      2166, State=00
Time=15095000, REC=4294967292, RPM=      2158, State=00
Time=15145000, REC=4294967292, RPM=      2151, State=00
Time=15195000, REC=4294967292, RPM=      2144, State=00
Time=15245000, REC=4294967292, RPM=      2136, State=00
Time=15295000, REC=4294967292, RPM=      2129, State=00
Time=15345000, REC=4294967292, RPM=      2122, State=00
Time=15395000, REC=4294967292, RPM=      2115, State=00
Time=15445000, REC=4294967292, RPM=      2107, State=00
Time=15495000, REC=4294967292, RPM=      2100, State=00
Time=15545000, REC=4294967292, RPM=      2093, State=00
Time=15595000, REC=4294967292, RPM=      2086, State=00
Time=15645000, REC=4294967292, RPM=      2079, State=00
Time=15695000, REC=4294967292, RPM=      2072, State=00
Time=15745000, REC=4294967292, RPM=      2066, State=00
Time=15795000, REC=4294967292, RPM=      2059, State=00
Time=15845000, REC=4294967292, RPM=      2052, State=00
Time=15895000, REC=4294967292, RPM=      2045, State=00
Time=15945000, REC=4294967292, RPM=      2039, State=00
Time=15995000, REC=4294967292, RPM=      2032, State=00
Time=16045000, REC=4294967292, RPM=      2025, State=00
Time=16095000, REC=4294967292, RPM=      2019, State=00
Time=16145000, REC=4294967292, RPM=      2012, State=00
Time=16195000, REC=4294967292, RPM=      2006, State=00
Time=16245000, REC=4294967292, RPM=      2000, State=00
Time=16295000, REC=4294967292, RPM=      1993, State=00
Time=16345000, REC=4294967292, RPM=      1987, State=00
Time=16395000, REC=4294967292, RPM=      1980, State=00
Time=16445000, REC=4294967292, RPM=      1974, State=00
Time=16495000, REC=4294967292, RPM=      1968, State=00
Time=16545000, REC=4294967292, RPM=      1962, State=00
Time=16595000, REC=4294967292, RPM=      1956, State=00
Time=16645000, REC=4294967292, RPM=      1950, State=00
Time=16695000, REC=4294967292, RPM=      1944, State=00
Time=16745000, REC=4294967292, RPM=      1937, State=00
Time=16795000, REC=4294967292, RPM=      1931, State=00
Time=16845000, REC=4294967292, RPM=      1926, State=00
Time=16895000, REC=4294967292, RPM=      1920, State=00
Time=16945000, REC=4294967292, RPM=      1914, State=00
Time=16995000, REC=4294967292, RPM=      1908, State=00
Time=17045000, REC=4294967292, RPM=      1902, State=00
Time=17095000, REC=4294967292, RPM=      1896, State=00
Time=17145000, REC=4294967292, RPM=      1891, State=00
Time=17195000, REC=4294967292, RPM=      1885, State=00
Time=17245000, REC=4294967292, RPM=      1879, State=00
Time=17295000, REC=4294967292, RPM=      1874, State=00
Time=17345000, REC=4294967292, RPM=      1868, State=00
Time=17395000, REC=4294967292, RPM=      1862, State=00
Time=17445000, REC=4294967292, RPM=      1857, State=00
Time=17495000, REC=4294967292, RPM=      1851, State=00
Time=17545000, REC=4294967292, RPM=      1846, State=00
Time=17595000, REC=4294967292, RPM=      1840, State=00
Time=17645000, REC=4294967292, RPM=      1835, State=00
Time=17695000, REC=4294967292, RPM=      1830, State=00
Time=17745000, REC=4294967292, RPM=      1824, State=00
Time=17795000, REC=4294967292, RPM=      1819, State=00
Time=17845000, REC=4294967292, RPM=      1814, State=00
Time=17895000, REC=4294967292, RPM=      1808, State=00
Time=17945000, REC=4294967292, RPM=      1803, State=00
Time=17995000, REC=4294967292, RPM=      1798, State=00
Time=18045000, REC=4294967292, RPM=      1793, State=00
Time=18095000, REC=4294967292, RPM=      1788, State=00
Time=18145000, REC=4294967292, RPM=      1783, State=00
Time=18195000, REC=4294967292, RPM=      1778, State=00
Time=18245000, REC=4294967292, RPM=      1773, State=00
Time=18295000, REC=4294967292, RPM=      1768, State=00
Time=18345000, REC=4294967292, RPM=      1763, State=00
Time=18395000, REC=4294967292, RPM=      1758, State=00
Time=18445000, REC=4294967292, RPM=      1753, State=00
Time=18495000, REC=4294967292, RPM=      1748, State=00
Time=18545000, REC=4294967292, RPM=      1743, State=00
Time=18595000, REC=4294967292, RPM=      1738, State=00
Time=18645000, REC=4294967292, RPM=      1733, State=00
Time=18695000, REC=4294967292, RPM=      1728, State=00
Time=18745000, REC=4294967292, RPM=      1724, State=00
Time=18795000, REC=4294967292, RPM=      1719, State=00
Time=18845000, REC=4294967292, RPM=      1714, State=00
Time=18895000, REC=4294967292, RPM=      1709, State=00
Time=18945000, REC=4294967292, RPM=      1705, State=00
Time=18995000, REC=4294967292, RPM=      1700, State=00
Time=19045000, REC=4294967292, RPM=      1696, State=00
Time=19095000, REC=4294967292, RPM=      1691, State=00
Time=19145000, REC=4294967292, RPM=      1686, State=00
Time=19195000, REC=4294967292, RPM=      1682, State=00
Time=19245000, REC=4294967292, RPM=      1677, State=00
Time=19295000, REC=4294967292, RPM=      1673, State=00
Time=19345000, REC=4294967292, RPM=      1668, State=00
Time=19395000, REC=4294967292, RPM=      1664, State=00
Time=19445000, REC=4294967292, RPM=      1660, State=00
Time=19495000, REC=4294967292, RPM=      1655, State=00
Time=19545000, REC=4294967292, RPM=      1651, State=00
Time=19595000, REC=4294967292, RPM=      1646, State=00
Time=19645000, REC=4294967292, RPM=      1642, State=00
Time=19695000, REC=4294967292, RPM=      1638, State=00
Time=19745000, REC=4294967292, RPM=      1633, State=00
Time=19795000, REC=4294967292, RPM=      1629, State=00
Time=19845000, REC=4294967292, RPM=      1625, State=00
Time=19895000, REC=4294967292, RPM=      1621, State=00
Time=19945000, REC=4294967292, RPM=      1617, State=00
Time=19995000, REC=4294967292, RPM=      1612, State=00
Time=20045000, REC=4294967292, RPM=      1608, State=00
Time=20095000, REC=4294967292, RPM=      1604, State=00
Time=20145000, REC=4294967292, RPM=      1600, State=00
Time=20195000, REC=4294967292, RPM=      1596, State=00
Time=20245000, REC=4294967292, RPM=      1592, State=00
Time=20295000, REC=4294967292, RPM=      1588, State=00
Time=20345000, REC=4294967292, RPM=      1584, State=00
Time=20395000, REC=4294967292, RPM=      1580, State=00
Time=20445000, REC=4294967292, RPM=      1576, State=00
Time=20495000, REC=4294967292, RPM=      1572, State=00
Time=20545000, REC=4294967292, RPM=      1568, State=00
Time=20595000, REC=4294967292, RPM=      1564, State=00
Time=20645000, REC=4294967292, RPM=      1560, State=00
Time=20695000, REC=4294967292, RPM=      1556, State=00
Time=20745000, REC=4294967292, RPM=      1552, State=00
Time=20795000, REC=4294967292, RPM=      1548, State=00
Time=20845000, REC=4294967292, RPM=      1545, State=00
Time=20895000, REC=4294967292, RPM=      1541, State=00
Time=20945000, REC=4294967292, RPM=      1537, State=00
Time=20995000, REC=4294967292, RPM=      1533, State=00
Time=21045000, REC=4294967292, RPM=      1529, State=00
Time=21095000, REC=4294967292, RPM=      1526, State=00
Time=21145000, REC=4294967292, RPM=      1522, State=00
Time=21195000, REC=4294967292, RPM=      1518, State=00
Time=21245000, REC=4294967292, RPM=      1515, State=00
Time=21295000, REC=4294967292, RPM=      1511, State=00
Time=21345000, REC=4294967292, RPM=      1507, State=00
Time=21395000, REC=4294967292, RPM=      1504, State=00
Time=21445000, REC=4294967292, RPM=      1500, State=00
Time=21495000, REC=4294967292, RPM=      1497, State=00
Time=21545000, REC=4294967292, RPM=      1493, State=00
Time=21595000, REC=4294967292, RPM=      1489, State=00
Time=21645000, REC=4294967292, RPM=      1486, State=00
Time=21695000, REC=4294967292, RPM=      1482, State=00
Time=21745000, REC=4294967292, RPM=      1479, State=00
Time=21795000, REC=4294967292, RPM=      1475, State=00
Time=21845000, REC=4294967292, RPM=      1472, State=00
Time=21895000, REC=4294967292, RPM=      1468, State=00
Time=21945000, REC=4294967292, RPM=      1465, State=00
Time=21995000, REC=4294967292, RPM=      1461, State=00
Time=22045000, REC=4294967292, RPM=      1458, State=00
Time=22095000, REC=4294967292, RPM=      1455, State=00
Time=22145000, REC=4294967292, RPM=      1451, State=00
Time=22195000, REC=4294967292, RPM=      1448, State=00
Time=22245000, REC=4294967292, RPM=      1445, State=00
Time=22295000, REC=4294967292, RPM=      1441, State=00
Time=22345000, REC=4294967292, RPM=      1438, State=00
Time=22395000, REC=4294967292, RPM=      1435, State=00
Time=22445000, REC=4294967292, RPM=      1431, State=00
Time=22495000, REC=4294967292, RPM=      1428, State=00
Time=22545000, REC=4294967292, RPM=      1425, State=00
Time=22595000, REC=4294967292, RPM=      1422, State=00
Time=22645000, REC=4294967292, RPM=      1418, State=00
Time=22695000, REC=4294967292, RPM=      1415, State=00
Time=22745000, REC=4294967292, RPM=      1412, State=00
Time=22795000, REC=4294967292, RPM=      1409, State=00
Time=22845000, REC=4294967292, RPM=      1406, State=00
Time=22895000, REC=4294967292, RPM=      1402, State=00
Time=22945000, REC=4294967292, RPM=      1399, State=00
Time=22995000, REC=4294967292, RPM=      1396, State=00
Time=23045000, REC=4294967292, RPM=      1393, State=00
Time=23095000, REC=4294967292, RPM=      1390, State=00
Time=23145000, REC=4294967292, RPM=      1387, State=00
Time=23195000, REC=4294967292, RPM=      1384, State=00
Time=23245000, REC=4294967292, RPM=      1381, State=00
Time=23295000, REC=4294967292, RPM=      1378, State=00
Time=23345000, REC=4294967292, RPM=      1375, State=00
Time=23395000, REC=4294967292, RPM=      1372, State=00
Time=23445000, REC=4294967292, RPM=      1369, State=00
Time=23495000, REC=4294967292, RPM=      1366, State=00
Time=23545000, REC=4294967292, RPM=      1363, State=00
Time=23595000, REC=4294967292, RPM=      1360, State=00
Time=23645000, REC=4294967292, RPM=      1357, State=00
Time=23695000, REC=4294967292, RPM=      1354, State=00
Time=23745000, REC=4294967292, RPM=      1351, State=00
Time=23795000, REC=4294967292, RPM=      1348, State=00
Time=23845000, REC=4294967292, RPM=      1345, State=00
Time=23895000, REC=4294967292, RPM=      1342, State=00
Time=23945000, REC=4294967292, RPM=      1339, State=00
Time=23995000, REC=4294967292, RPM=      1336, State=00
Time=24045000, REC=4294967292, RPM=      1334, State=00
Time=24095000, REC=4294967292, RPM=      1331, State=00
Time=24145000, REC=4294967292, RPM=      1328, State=00
Time=24195000, REC=4294967292, RPM=      1325, State=00
Time=24245000, REC=4294967292, RPM=      1322, State=00
Time=24295000, REC=4294967292, RPM=      1319, State=00
Time=24345000, REC=4294967292, RPM=      1317, State=00
Time=24395000, REC=4294967292, RPM=      1314, State=00
Time=24445000, REC=4294967292, RPM=      1311, State=00
Time=24495000, REC=4294967292, RPM=      1308, State=00
Time=24545000, REC=4294967292, RPM=      1306, State=00
Time=24595000, REC=4294967292, RPM=      1303, State=00
Time=24645000, REC=4294967292, RPM=      1300, State=00
Time=24695000, REC=4294967292, RPM=      1298, State=00
Time=24745000, REC=4294967292, RPM=      1295, State=00
Time=24795000, REC=4294967292, RPM=      1292, State=00
Time=24845000, REC=4294967292, RPM=      1289, State=00
Time=24895000, REC=4294967292, RPM=      1287, State=00
Time=24945000, REC=4294967292, RPM=      1284, State=00
Time=24995000, REC=4294967292, RPM=      1282, State=00
Time=25045000, REC=4294967292, RPM=      1279, State=00
Time=25095000, REC=4294967292, RPM=      1276, State=00
Time=25145000, REC=4294967292, RPM=      1274, State=00
Time=25195000, REC=4294967292, RPM=      1271, State=00
Time=25245000, REC=4294967292, RPM=      1269, State=00
Time=25295000, REC=4294967292, RPM=      1266, State=00
Time=25345000, REC=4294967292, RPM=      1263, State=00
Time=25395000, REC=4294967292, RPM=      1261, State=00
Time=25445000, REC=4294967292, RPM=      1258, State=00
Time=25495000, REC=4294967292, RPM=      1256, State=00
Time=25545000, REC=4294967292, RPM=      1253, State=00
Time=25595000, REC=4294967292, RPM=      1251, State=00
Time=25645000, REC=4294967292, RPM=      1248, State=00
Time=25695000, REC=4294967292, RPM=      1246, State=00
Time=25745000, REC=4294967292, RPM=      1243, State=00
Time=25795000, REC=4294967292, RPM=      1241, State=00
Time=25845000, REC=4294967292, RPM=      1238, State=00
Time=25895000, REC=4294967292, RPM=      1236, State=00
Time=25945000, REC=4294967292, RPM=      1233, State=00
Time=25995000, REC=4294967292, RPM=      1231, State=00
Time=26045000, REC=4294967292, RPM=      1229, State=00
Time=26095000, REC=4294967292, RPM=      1226, State=00
Time=26145000, REC=4294967292, RPM=      1224, State=00
Time=26195000, REC=4294967292, RPM=      1221, State=00
Time=26245000, REC=4294967292, RPM=      1219, State=00
Time=26295000, REC=4294967292, RPM=      1217, State=00
Time=26345000, REC=4294967292, RPM=      1214, State=00
Time=26395000, REC=4294967292, RPM=      1212, State=00
Time=26445000, REC=4294967292, RPM=      1210, State=00
Time=26495000, REC=4294967292, RPM=      1207, State=00
Time=26545000, REC=4294967292, RPM=      1205, State=00
Time=26595000, REC=4294967292, RPM=      1203, State=00
Time=26645000, REC=4294967292, RPM=      1200, State=00
Time=26695000, REC=4294967292, RPM=      1198, State=00
Time=26745000, REC=4294967292, RPM=      1196, State=00
Time=26795000, REC=4294967292, RPM=      1193, State=00
Time=26845000, REC=4294967292, RPM=      1191, State=00
Time=26895000, REC=4294967292, RPM=      1189, State=00
Time=26945000, REC=4294967292, RPM=      1187, State=00
Time=26995000, REC=4294967292, RPM=      1184, State=00
Time=27045000, REC=4294967292, RPM=      1182, State=00
Time=27095000, REC=4294967292, RPM=      1180, State=00
Time=27145000, REC=4294967292, RPM=      1178, State=00
Time=27195000, REC=4294967292, RPM=      1175, State=00
